\relax 
\babel@aux{italian}{}
\babel@aux{italian}{}
\@writefile{toc}{\contentsline {chapter}{\numberline {1}La programmazione \IeC {\`e} un arte?}{2}\protected@file@percent }
\@writefile{lof}{\addvspace {10\p@ }}
\@writefile{lot}{\addvspace {10\p@ }}
\@writefile{toc}{\contentsline {section}{\numberline {1.1}Sezione 1}{2}\protected@file@percent }
\@writefile{toc}{\contentsline {section}{\numberline {1.2}Sezione 2}{2}\protected@file@percent }
\@writefile{toc}{\contentsline {chapter}{\numberline {2}Capitolo 2}{3}\protected@file@percent }
\@writefile{lof}{\addvspace {10\p@ }}
\@writefile{lot}{\addvspace {10\p@ }}
\@writefile{toc}{\contentsline {section}{\numberline {2.1}Sezione 1}{3}\protected@file@percent }
\@writefile{toc}{\contentsline {section}{\numberline {2.2}Sezione 2}{3}\protected@file@percent }
