\babel@toc {italian}{}
\babel@toc {italian}{}
\contentsline {chapter}{\numberline {1}La programmazione \IeC {\`e} un arte?}{2}% 
\contentsline {section}{\numberline {1.1}Sezione 1}{2}% 
\contentsline {section}{\numberline {1.2}Sezione 2}{2}% 
\contentsline {chapter}{\numberline {2}Capitolo 2}{3}% 
\contentsline {section}{\numberline {2.1}Sezione 1}{3}% 
\contentsline {section}{\numberline {2.2}Sezione 2}{3}% 
